<?xml version="1.0" encoding="UTF-8" standalone="no"?>
<!-- Created with Inkscape (http://www.inkscape.org/) -->
<svg
   xmlns:dc="http://purl.org/dc/elements/1.1/"
   xmlns:cc="http://creativecommons.org/ns#"
   xmlns:rdf="http://www.w3.org/1999/02/22-rdf-syntax-ns#"
   xmlns:svg="http://www.w3.org/2000/svg"
   xmlns="http://www.w3.org/2000/svg"
   xmlns:xlink="http://www.w3.org/1999/xlink"
   xmlns:sodipodi="http://sodipodi.sourceforge.net/DTD/sodipodi-0.dtd"
   xmlns:inkscape="http://www.inkscape.org/namespaces/inkscape"
   width="48px"
   height="48px"
   id="svg8025"
   sodipodi:version="0.32"
   inkscape:version="0.46"
   sodipodi:docname="user-desktop.svg"
   inkscape:output_extension="org.inkscape.output.svg.inkscape">
  <defs
     id="defs8027">
    <linearGradient
       id="linearGradient8019">
      <stop
         style="stop-color:#ffffff;stop-opacity:1"
         offset="0"
         id="stop8021" />
      <stop
         style="stop-color:#d3d7cf;stop-opacity:1"
         offset="1"
         id="stop8023" />
    </linearGradient>
    <linearGradient
       inkscape:collect="always"
       xlink:href="#linearGradient8019"
       id="linearGradient13917"
       gradientUnits="userSpaceOnUse"
       gradientTransform="matrix(0.2223829,0,0,0.2660568,6.2867492,27.087765)"
       x1="32.892288"
       y1="8.0590115"
       x2="36.358372"
       y2="5.4565363" />
    <linearGradient
       inkscape:collect="always"
       xlink:href="#linearGradient13905"
       id="linearGradient13915"
       gradientUnits="userSpaceOnUse"
       gradientTransform="matrix(0.2000113,0,0,0.1777865,7.1997312,27.233124)"
       x1="23.999987"
       y1="-1.3112638"
       x2="23.999987"
       y2="49.311253" />
    <linearGradient
       id="linearGradient8013">
      <stop
         style="stop-color:#ffffff;stop-opacity:1"
         offset="0"
         id="stop8015" />
      <stop
         style="stop-color:#d3d7cf;stop-opacity:1"
         offset="1"
         id="stop8017" />
    </linearGradient>
    <linearGradient
       collect="always"
       xlink:href="#linearGradient8013"
       id="linearGradient5538"
       gradientUnits="userSpaceOnUse"
       gradientTransform="matrix(0.2223829,0,0,0.2660568,6.2867498,15.087765)"
       x1="32.892288"
       y1="8.0590115"
       x2="36.358372"
       y2="5.4565363" />
    <linearGradient
       id="linearGradient13905"
       collect="always">
      <stop
         id="stop13907"
         offset="0"
         style="stop-color:#ffffff;stop-opacity:1" />
      <stop
         id="stop13909"
         offset="1"
         style="stop-color:#d3d7cf;stop-opacity:1" />
    </linearGradient>
    <linearGradient
       inkscape:collect="always"
       xlink:href="#linearGradient13905"
       id="linearGradient13903"
       gradientUnits="userSpaceOnUse"
       gradientTransform="matrix(0.2000113,0,0,0.1777865,7.1997313,15.233124)"
       x1="23.999987"
       y1="-1.3112638"
       x2="23.999987"
       y2="49.311253" />
    <linearGradient
       inkscape:collect="always"
       id="linearGradient4788-7">
      <stop
         style="stop-color:#ffffff;stop-opacity:1;"
         offset="0"
         id="stop4790-8" />
      <stop
         style="stop-color:#ffffff;stop-opacity:0;"
         offset="1"
         id="stop4792-6" />
    </linearGradient>
    <radialGradient
       inkscape:collect="always"
       xlink:href="#linearGradient4788-7"
       id="radialGradient13328"
       gradientUnits="userSpaceOnUse"
       gradientTransform="matrix(-2.1743122,1.086528e-6,0.1555742,-1.7619693,712.87107,115.19387)"
       cx="326.0206"
       cy="58"
       fx="326.0206"
       fy="58"
       r="12.5" />
    <linearGradient
       inkscape:collect="always"
       id="linearGradient5687">
      <stop
         style="stop-color:#ffffff;stop-opacity:1;"
         offset="0"
         id="stop5689" />
      <stop
         style="stop-color:#ffffff;stop-opacity:0;"
         offset="1"
         id="stop5691" />
    </linearGradient>
    <linearGradient
       inkscape:collect="always"
       xlink:href="#linearGradient5687"
       id="linearGradient13331"
       gradientUnits="userSpaceOnUse"
       gradientTransform="matrix(0.1730768,0,0,0.2016128,-1.615383,-1.516133)"
       x1="88"
       y1="44.5"
       x2="178"
       y2="202.5" />
    <linearGradient
       inkscape:collect="always"
       id="linearGradient4788">
      <stop
         style="stop-color:#ffffff;stop-opacity:1;"
         offset="0"
         id="stop4790" />
      <stop
         style="stop-color:#ffffff;stop-opacity:0;"
         offset="1"
         id="stop4792" />
    </linearGradient>
    <radialGradient
       inkscape:collect="always"
       xlink:href="#linearGradient4788"
       id="radialGradient13334"
       gradientUnits="userSpaceOnUse"
       gradientTransform="matrix(5.7967413,6.3813386e-8,-1.425586e-8,1.5799301,-1867.6624,-78.599519)"
       cx="327.5"
       cy="58"
       fx="327.5"
       fy="58"
       r="12.5" />
    <linearGradient
       id="linearGradient2699">
      <stop
         style="stop-color:#f81340;stop-opacity:1"
         offset="0"
         id="stop2701" />
      <stop
         style="stop-color:#f939a7;stop-opacity:1"
         offset="1"
         id="stop2703" />
    </linearGradient>
    <radialGradient
       inkscape:collect="always"
       xlink:href="#linearGradient2699"
       id="radialGradient13337"
       gradientUnits="userSpaceOnUse"
       gradientTransform="matrix(2.2642324,-1.5910558e-5,8.4408674e-6,1.2012203,-30.355557,-5.72857)"
       cx="24.006104"
       cy="37.921711"
       fx="24.006104"
       fy="37.921711"
       r="19.00016" />
    <linearGradient
       id="linearGradient259-942">
      <stop
         id="stop3802"
         style="stop-color:#eeeeec;stop-opacity:1"
         offset="0" />
      <stop
         id="stop3804"
         style="stop-color:#d3d7cf;stop-opacity:1"
         offset="1" />
    </linearGradient>
    <linearGradient
       collect="always"
       xlink:href="#linearGradient259-942"
       id="linearGradient5552"
       gradientUnits="userSpaceOnUse"
       gradientTransform="matrix(0.4841312,0,0,0.3122355,-56.810748,-45.579105)"
       x1="109.10701"
       y1="110.72625"
       x2="26.546656"
       y2="17.641199" />
    <radialGradient
       inkscape:collect="always"
       xlink:href="#linearGradient5060"
       id="radialGradient13319"
       gradientUnits="userSpaceOnUse"
       gradientTransform="matrix(2.891661e-2,0,0,1.6470585e-2,26.973101,32.96113)"
       cx="605.71429"
       cy="486.64789"
       fx="605.71429"
       fy="486.64789"
       r="117.14286" />
    <linearGradient
       id="linearGradient5060">
      <stop
         id="stop5062"
         style="stop-color:#000000;stop-opacity:1"
         offset="0" />
      <stop
         id="stop5064"
         style="stop-color:#000000;stop-opacity:0"
         offset="1" />
    </linearGradient>
    <radialGradient
       inkscape:collect="always"
       xlink:href="#linearGradient5060"
       id="radialGradient13322"
       gradientUnits="userSpaceOnUse"
       gradientTransform="matrix(-2.8916604e-2,0,0,1.6470585e-2,21.026894,32.96113)"
       cx="605.71429"
       cy="486.64789"
       fx="605.71429"
       fy="486.64789"
       r="117.14286" />
    <linearGradient
       id="linearGradient5048">
      <stop
         id="stop5050"
         style="stop-color:#000000;stop-opacity:0"
         offset="0" />
      <stop
         id="stop5056"
         style="stop-color:#000000;stop-opacity:1"
         offset="0.5" />
      <stop
         id="stop5052"
         style="stop-color:#000000;stop-opacity:0"
         offset="1" />
    </linearGradient>
    <linearGradient
       inkscape:collect="always"
       xlink:href="#linearGradient5048"
       id="linearGradient13325"
       gradientUnits="userSpaceOnUse"
       gradientTransform="matrix(8.4497041e-2,0,0,1.6470585e-2,-6.5396456,32.961095)"
       x1="302.85715"
       y1="366.64789"
       x2="302.85715"
       y2="609.50507" />
  </defs>
  <sodipodi:namedview
     id="base"
     pagecolor="#ffffff"
     bordercolor="#666666"
     borderopacity="1.0"
     inkscape:pageopacity="0.0"
     inkscape:pageshadow="2"
     inkscape:zoom="7"
     inkscape:cx="25.169176"
     inkscape:cy="17.257961"
     inkscape:current-layer="layer1"
     showgrid="true"
     inkscape:grid-bbox="true"
     inkscape:document-units="px"
     inkscape:window-width="641"
     inkscape:window-height="690"
     inkscape:window-x="303"
     inkscape:window-y="149" />
  <metadata
     id="metadata8030">
    <rdf:RDF>
      <cc:Work
         rdf:about="">
        <dc:format>image/svg+xml</dc:format>
        <dc:type
           rdf:resource="http://purl.org/dc/dcmitype/StillImage" />
      </cc:Work>
    </rdf:RDF>
  </metadata>
  <g
     id="layer1"
     inkscape:label="Layer 1"
     inkscape:groupmode="layer">
    <rect
       width="40.799999"
       height="3.9999995"
       x="3.5999999"
       y="39"
       id="rect2879"
       style="opacity:0.4;fill:url(#linearGradient13325);fill-opacity:1;fill-rule:nonzero;stroke:none;stroke-width:1;stroke-linecap:round;stroke-linejoin:miter;marker:none;marker-start:none;marker-mid:none;marker-end:none;stroke-miterlimit:4;stroke-dasharray:none;stroke-dashoffset:0;stroke-opacity:1;visibility:visible;display:inline;overflow:visible" />
    <path
       d="M 3.6,39.000172 C 3.6,39.000172 3.6,42.999952 3.6,42.999952 C 2.1108662,43.007482 5.5511151e-17,42.103804 5.5511151e-17,40.999804 C 5.5511151e-17,39.895807 1.6617608,39.000174 3.6,39.000172 z"
       id="path2881"
       style="opacity:0.4;fill:url(#radialGradient13322);fill-opacity:1;fill-rule:nonzero;stroke:none;stroke-width:1;stroke-linecap:round;stroke-linejoin:miter;marker:none;marker-start:none;marker-mid:none;marker-end:none;stroke-miterlimit:4;stroke-dasharray:none;stroke-dashoffset:0;stroke-opacity:1;visibility:visible;display:inline;overflow:visible" />
    <path
       d="M 44.4,39.000172 C 44.4,39.000172 44.4,42.999952 44.4,42.999952 C 45.889133,43.007482 48,42.103804 48,40.999804 C 48,39.895807 46.338239,39.000174 44.4,39.000172 z"
       id="path2883"
       style="opacity:0.4;fill:url(#radialGradient13319);fill-opacity:1;fill-rule:nonzero;stroke:none;stroke-width:1;stroke-linecap:round;stroke-linejoin:miter;marker:none;marker-start:none;marker-mid:none;marker-end:none;stroke-miterlimit:4;stroke-dasharray:none;stroke-dashoffset:0;stroke-opacity:1;visibility:visible;display:inline;overflow:visible" />
    <rect
       style="fill:url(#linearGradient5552);fill-opacity:1;stroke:#888a85;stroke-width:0.99998146;stroke-linecap:round;stroke-linejoin:miter;stroke-miterlimit:4;stroke-dasharray:none;stroke-opacity:0.96862745"
       id="rect3580"
       transform="matrix(-0.9999987,1.6122887e-3,-1.0325415e-3,-0.9999995,0,0)"
       y="-41.50481"
       x="-45.457737"
       height="31.932295"
       width="42.968155"
       ry="0.51010537"
       rx="0.47368893" />
    <rect
       y="12.499826"
       x="5.4998274"
       height="26.000345"
       width="37.000343"
       id="rect2716"
       style="fill:url(#radialGradient13337);fill-opacity:1;fill-rule:evenodd;stroke:#f939a7;stroke-width:0.99965488999999996;stroke-linecap:butt;stroke-linejoin:miter;stroke-miterlimit:4;stroke-dasharray:none;stroke-opacity:1;display:inline;enable-background:new" />
    <path
       style="opacity:0.24497992;fill:url(#radialGradient13334);fill-opacity:1;stroke:none;display:inline;enable-background:new"
       d="M 33.027045,13.036442 L 42.05409,13.036442 L 42.05409,37.963545 L 22.19459,37.963545 L 33.027045,13.036442 z"
       id="rect4785"
       sodipodi:nodetypes="ccccc" />
    <rect
       style="opacity:0.15;fill:url(#linearGradient13331);fill-opacity:1;fill-rule:evenodd;stroke:none;display:inline;enable-background:new"
       id="rect3466"
       width="36"
       height="25"
       x="6.0000005"
       y="13" />
    <path
       style="opacity:0.24497992;fill:url(#radialGradient13328);fill-opacity:1;stroke:none;display:inline;enable-background:new"
       d="M 21.851294,12.999999 L 29,12.999999 L 20.506358,33.999999 L 17,33.764043 L 21.851294,12.999999 L 21.851294,12.999999 L 21.851294,12.999999 z"
       id="path10688-3"
       sodipodi:nodetypes="ccccc" />
    <path
       style="fill:url(#linearGradient13903);fill-opacity:1;stroke:#747672;stroke-width:0.99959248;stroke-linecap:butt;stroke-linejoin:round;stroke-miterlimit:4;stroke-dasharray:none;stroke-dashoffset:0;stroke-opacity:1;display:inline"
       d="M 8.4997959,15.499795 C 10.103944,15.499795 11.15771,15.499795 12.76186,15.499795 C 13.043263,15.58609 15.105434,17.319289 15.500204,17.999999 C 15.500204,20.083427 15.500204,21.416775 15.500204,23.500203 C 13.166737,23.500203 10.833265,23.500203 8.4997959,23.500203 C 8.4997959,20.8334 8.4997959,18.166598 8.4997959,15.499795 z"
       id="path13901"
       nodetypes="cccccc"
       sodipodi:nodetypes="cccccc" />
    <path
       style="fill:url(#linearGradient5538);fill-opacity:1;fill-rule:evenodd;stroke:#747672;stroke-width:0.99969989;stroke-linecap:butt;stroke-linejoin:round;stroke-miterlimit:4;stroke-dasharray:none;stroke-opacity:1;display:inline"
       d="M 12.49985,15.499849 C 12.49985,16.655965 12.49985,18.500149 12.49985,18.500149 C 12.49985,18.500149 14.948094,18.500149 15.50015,18.500149 C 15.50015,17.076007 13.69597,15.499849 12.49985,15.499849 z"
       id="path12038"
       nodetypes="cccc" />
    <path
       style="fill:url(#linearGradient13915);fill-opacity:1;stroke:#747672;stroke-width:0.99959248;stroke-linecap:butt;stroke-linejoin:round;stroke-miterlimit:4;stroke-dasharray:none;stroke-dashoffset:0;stroke-opacity:1;display:inline"
       d="M 8.4997959,27.499795 C 10.103943,27.499795 11.157709,27.499795 12.761859,27.499795 C 13.043262,27.58609 15.105433,29.319289 15.500203,29.999999 C 15.500203,32.083427 15.500203,33.416775 15.500203,35.500203 C 13.166736,35.500203 10.833264,35.500203 8.4997959,35.500203 C 8.4997959,32.8334 8.4997959,30.166598 8.4997959,27.499795 z"
       id="path13911"
       nodetypes="cccccc"
       sodipodi:nodetypes="cccccc" />
    <path
       style="fill:url(#linearGradient13917);fill-opacity:1;fill-rule:evenodd;stroke:#747672;stroke-width:0.99969989;stroke-linecap:butt;stroke-linejoin:round;stroke-miterlimit:4;stroke-dasharray:none;stroke-opacity:1;display:inline"
       d="M 12.499849,27.499849 C 12.499849,28.655965 12.499849,30.500149 12.499849,30.500149 C 12.499849,30.500149 14.948093,30.500149 15.500149,30.500149 C 15.500149,29.076007 13.695969,27.499849 12.499849,27.499849 z"
       id="path13913"
       nodetypes="cccc" />
  </g>
</svg>
