<?xml version="1.0" encoding="UTF-8" standalone="no"?>
<!-- Created with Inkscape (http://www.inkscape.org/) -->
<svg
   xmlns:dc="http://purl.org/dc/elements/1.1/"
   xmlns:cc="http://creativecommons.org/ns#"
   xmlns:rdf="http://www.w3.org/1999/02/22-rdf-syntax-ns#"
   xmlns:svg="http://www.w3.org/2000/svg"
   xmlns="http://www.w3.org/2000/svg"
   xmlns:xlink="http://www.w3.org/1999/xlink"
   xmlns:sodipodi="http://sodipodi.sourceforge.net/DTD/sodipodi-0.dtd"
   xmlns:inkscape="http://www.inkscape.org/namespaces/inkscape"
   width="48px"
   height="48px"
   id="svg7209"
   sodipodi:version="0.32"
   inkscape:version="0.46"
   sodipodi:docname="drawing.svg"
   inkscape:output_extension="org.inkscape.output.svg.inkscape">
  <defs
     id="defs7211">
    <linearGradient
       inkscape:collect="always"
       id="linearGradient3104">
      <stop
         style="stop-color:#f81340"
         offset="0"
         id="stop3106" />
      <stop
         style="stop-color:#cd0c32"
         offset="1"
         id="stop3108" />
    </linearGradient>
    <linearGradient
       inkscape:collect="always"
       xlink:href="#linearGradient3104"
       id="linearGradient3110"
       x1="14.454059"
       y1="15.161165"
       x2="12.16466"
       y2="12.396894"
       gradientUnits="userSpaceOnUse"
       gradientTransform="translate(0,1.6e-5)" />
    <linearGradient
       id="linearGradient1349"
       inkscape:collect="always">
      <stop
         id="stop1351"
         offset="0"
         style="stop-color:#f81340" />
      <stop
         id="stop1353"
         offset="1"
         style="stop-color:#eeeeec" />
    </linearGradient>
    <linearGradient
       inkscape:collect="always"
       xlink:href="#linearGradient1349"
       id="linearGradient1347"
       gradientUnits="userSpaceOnUse"
       gradientTransform="translate(0,2.0000161)"
       x1="21.25"
       y1="5.8177266"
       x2="29.875"
       y2="77.597641" />
    <linearGradient
       inkscape:collect="always"
       id="linearGradient2181">
      <stop
         style="stop-color:#d3d7cf"
         offset="0"
         id="stop2183" />
      <stop
         style="stop-color:#eeeeec"
         offset="1"
         id="stop2185" />
    </linearGradient>
    <linearGradient
       inkscape:collect="always"
       xlink:href="#linearGradient2181"
       id="linearGradient2187"
       x1="21.25"
       y1="5.8177266"
       x2="29.875"
       y2="77.597641"
       gradientUnits="userSpaceOnUse"
       gradientTransform="translate(0,2.0000161)" />
    <linearGradient
       id="linearGradient3405">
      <stop
         id="stop3407"
         offset="0"
         style="stop-color:black;stop-opacity:0;" />
      <stop
         style="stop-color:black;stop-opacity:1;"
         offset="0.5"
         id="stop3413" />
      <stop
         id="stop3409"
         offset="1"
         style="stop-color:black;stop-opacity:0;" />
    </linearGradient>
    <linearGradient
       gradientUnits="userSpaceOnUse"
       y2="41.999989"
       x2="19.01943"
       y1="48.000343"
       x1="19.01943"
       id="linearGradient3411"
       xlink:href="#linearGradient3405"
       inkscape:collect="always" />
    <linearGradient
       id="linearGradient3423"
       inkscape:collect="always">
      <stop
         id="stop3425"
         offset="0"
         style="stop-color:black;stop-opacity:1;" />
      <stop
         id="stop3427"
         offset="1"
         style="stop-color:black;stop-opacity:0;" />
    </linearGradient>
    <radialGradient
       gradientUnits="userSpaceOnUse"
       gradientTransform="matrix(2,0,0,2,-45,-45)"
       r="1.5"
       fy="45"
       fx="45"
       cy="45"
       cx="45"
       id="radialGradient3429"
       xlink:href="#linearGradient3423"
       inkscape:collect="always" />
    <linearGradient
       id="linearGradient3415"
       inkscape:collect="always">
      <stop
         id="stop3417"
         offset="0"
         style="stop-color:black;stop-opacity:1;" />
      <stop
         id="stop3419"
         offset="1"
         style="stop-color:black;stop-opacity:0;" />
    </linearGradient>
    <radialGradient
       gradientUnits="userSpaceOnUse"
       gradientTransform="matrix(0,-2,2,0,-87,51)"
       r="1.5"
       fy="45"
       fx="3"
       cy="45"
       cx="3"
       id="radialGradient3421"
       xlink:href="#linearGradient3415"
       inkscape:collect="always" />
  </defs>
  <sodipodi:namedview
     id="base"
     pagecolor="#ffffff"
     bordercolor="#666666"
     borderopacity="1.0"
     inkscape:pageopacity="0.0"
     inkscape:pageshadow="2"
     inkscape:zoom="7"
     inkscape:cx="24"
     inkscape:cy="24"
     inkscape:current-layer="layer1"
     showgrid="true"
     inkscape:grid-bbox="true"
     inkscape:document-units="px"
     inkscape:window-width="641"
     inkscape:window-height="690"
     inkscape:window-x="157"
     inkscape:window-y="163" />
  <metadata
     id="metadata7214">
    <rdf:RDF>
      <cc:Work
         rdf:about="">
        <dc:format>image/svg+xml</dc:format>
        <dc:type
           rdf:resource="http://purl.org/dc/dcmitype/StillImage" />
      </cc:Work>
    </rdf:RDF>
  </metadata>
  <g
     id="layer1"
     inkscape:label="Layer 1"
     inkscape:groupmode="layer">
    <g
       id="g3431"
       style="opacity:0.3"
       transform="matrix(1,0,0,1.333333,0,-17.999984)">
      <rect
         y="42"
         x="0"
         height="6"
         width="3"
         id="rect3399"
         style="opacity:1;fill:url(#radialGradient3421);fill-opacity:1;stroke:none;stroke-width:1;stroke-linecap:square;stroke-linejoin:miter;stroke-miterlimit:4;stroke-dasharray:none;stroke-opacity:1" />
      <rect
         y="42"
         x="45"
         height="6"
         width="3"
         id="rect3401"
         style="opacity:1;fill:url(#radialGradient3429);fill-opacity:1;stroke:none;stroke-width:1;stroke-linecap:square;stroke-linejoin:miter;stroke-miterlimit:4;stroke-dasharray:none;stroke-opacity:1" />
      <rect
         y="42"
         x="3"
         height="6"
         width="42"
         id="rect3403"
         style="opacity:1;fill:url(#linearGradient3411);fill-opacity:1;stroke:none;stroke-width:1;stroke-linecap:square;stroke-linejoin:miter;stroke-miterlimit:4;stroke-dasharray:none;stroke-opacity:1" />
    </g>
    <rect
       style="opacity:1;fill:url(#linearGradient2187);fill-opacity:1;fill-rule:nonzero;stroke:#babdb6;stroke-width:1;stroke-linecap:round;stroke-linejoin:miter;marker:none;marker-start:none;marker-mid:none;marker-end:none;stroke-miterlimit:4;stroke-dasharray:none;stroke-dashoffset:0;stroke-opacity:1;visibility:visible;display:inline;overflow:visible"
       id="rect1304"
       width="43"
       height="39"
       x="2.5"
       y="4.5000162"
       rx="1.5"
       ry="1.5" />
    <rect
       style="opacity:1;fill:none;fill-opacity:1;fill-rule:nonzero;stroke:#ffffff;stroke-width:1;stroke-linecap:round;stroke-linejoin:miter;marker:none;marker-start:none;marker-mid:none;marker-end:none;stroke-miterlimit:4;stroke-dasharray:none;stroke-dashoffset:0;stroke-opacity:1;visibility:visible;display:inline;overflow:visible"
       id="rect2179"
       width="41"
       height="37"
       x="3.5000002"
       y="5.5000162"
       rx="0.5"
       ry="0.5" />
    <path
       style="fill:url(#linearGradient1347);fill-opacity:1;fill-rule:nonzero;stroke:url(#linearGradient3110);stroke-width:1;stroke-linecap:round;stroke-linejoin:miter;marker:none;marker-start:none;marker-mid:none;marker-end:none;stroke-miterlimit:4;stroke-dashoffset:0;stroke-opacity:1;visibility:visible;display:inline;overflow:visible"
       d="M 4,4.5000161 L 23.5,4.5000161 L 23.5,23.500016 L 2.5,23.500016 L 2.5,6.0000161 C 2.5,5.1690161 3.169,4.5000161 4,4.5000161 z"
       id="rect1344"
       sodipodi:nodetypes="cccccc" />
    <g
       id="g2295"
       style="opacity:0.07000002"
       transform="translate(0,2.0000161)">
      <path
         id="path2209"
         d="M 23.5,3.5 L 23.5,40.5"
         style="opacity:1;fill:none;fill-opacity:0.75;fill-rule:evenodd;stroke:#000000;stroke-width:1;stroke-linecap:round;stroke-linejoin:miter;stroke-miterlimit:4;stroke-dasharray:none;stroke-opacity:1" />
      <path
         id="path2211"
         d="M 3.5,21.5 L 44.5,21.5"
         style="opacity:1;fill:none;fill-opacity:0.75;fill-rule:evenodd;stroke:#000000;stroke-width:1;stroke-linecap:round;stroke-linejoin:miter;stroke-miterlimit:4;stroke-dasharray:none;stroke-opacity:1" />
    </g>
    <path
       style="opacity:1;fill:#ffffff;fill-opacity:1;fill-rule:evenodd;stroke:#eeeeec;stroke-width:1;stroke-linecap:round;stroke-linejoin:miter;stroke-miterlimit:4;stroke-dasharray:none;stroke-opacity:1"
       d="M 3.5,24.500016 L 44.5,24.500016"
       id="path2205" />
    <path
       style="opacity:1;fill:#ffffff;fill-opacity:1;fill-rule:evenodd;stroke:#eeeeec;stroke-width:1;stroke-linecap:round;stroke-linejoin:miter;stroke-miterlimit:4;stroke-dasharray:none;stroke-opacity:1"
       d="M 24.5,5.5000161 L 24.5,42.500016"
       id="path2207" />
    <path
       style="opacity:0.4;fill:none;fill-opacity:1;fill-rule:nonzero;stroke:#ffffff;stroke-width:1;stroke-linecap:square;stroke-linejoin:miter;marker:none;marker-start:none;marker-mid:none;marker-end:none;stroke-miterlimit:4;stroke-dashoffset:0;stroke-opacity:1;visibility:visible;display:inline;overflow:visible"
       d="M 3.5,23.500016 L 3.5,6.0000161 C 3.5,5.7230161 3.723,5.5000161 4,5.5000161 L 23.5,5.5000161"
       id="rect1355"
       sodipodi:nodetypes="cccc" />
    <rect
       style="opacity:1;fill:#d3d7cf;fill-opacity:1;stroke:#f939a7;stroke-width:0.99999934;stroke-linecap:round;stroke-linejoin:round;stroke-miterlimit:4;stroke-dasharray:none;stroke-opacity:1"
       id="rect1906"
       width="9.9999895"
       height="7.0000014"
       x="5.500011"
       y="7.5000157" />
    <rect
       style="opacity:1;fill:#d3d7cf;fill-opacity:1;stroke:#f939a7;stroke-width:0.99999946;stroke-linecap:round;stroke-linejoin:round;stroke-miterlimit:4;stroke-dasharray:none;stroke-opacity:1"
       id="rect1890"
       width="7.0000019"
       height="4.9999981"
       x="6.499999"
       y="16.500025" />
    <rect
       style="opacity:1;fill:#cd0c32;fill-opacity:1;stroke:#d3d7cf;stroke-width:1;stroke-linecap:round;stroke-linejoin:round;stroke-miterlimit:4;stroke-dasharray:none;stroke-opacity:1"
       id="rect2796"
       width="12"
       height="8"
       x="9.5"
       y="11.500017" />
  </g>
</svg>
